Cox_interactions
…
Cumulative hazard

survloc <- survfit(Surv(total_lived, censored) ~ location, datos_field_lab)
R <- survloc %>% fortify %>% group_by(strata) %>% mutate(CumHaz = cumsum(n.event/n.risk))
print(R, 60)

## # A tibble: 183 x 10
## # Groups:   strata [3]
##     time n.risk n.event n.censor  surv std.err upper lower strata     CumHaz
##    <dbl>  <dbl>   <dbl>    <dbl> <dbl>   <dbl> <dbl> <dbl> <fct>       <dbl>
##  1     1    429      41       15 0.904  0.0157 0.933 0.877 Semi_Urban 0.0956
##  2     2    373      21        0 0.854  0.0202 0.888 0.820 Semi_Urban 0.152 
##  3     3    352      22        0 0.800  0.0244 0.839 0.763 Semi_Urban 0.214 
##  4     4    330      16        0 0.761  0.0274 0.803 0.722 Semi_Urban 0.263 
##  5     5    314      14        0 0.727  0.0300 0.771 0.686 Semi_Urban 0.307 
##  6     6    300      12        2 0.698  0.0322 0.744 0.656 Semi_Urban 0.347 
##  7     7    286      21        0 0.647  0.0363 0.695 0.603 Semi_Urban 0.421 
##  8     8    265      13        1 0.615  0.0389 0.664 0.570 Semi_Urban 0.470 
##  9     9    251       4        1 0.606  0.0397 0.654 0.560 Semi_Urban 0.486 
## 10    10    246      10        0 0.581  0.0418 0.630 0.535 Semi_Urban 0.527 
## # ... with 173 more rows
…
survmet <- survfit(Surv(total_lived, censored) ~ method, datos_field_lab)
S <- survmet %>% fortify %>% group_by(strata) %>% mutate(CumHaz = cumsum(n.event/n.risk))
print(S, 60)

## # A tibble: 119 x 10
## # Groups:   strata [2]
##     time n.risk n.event n.censor  surv std.err upper lower strata CumHaz
##    <dbl>  <dbl>   <dbl>    <dbl> <dbl>   <dbl> <dbl> <dbl> <fct>   <dbl>
##  1     1    157       4        1 0.975  0.0129 0.999 0.950 HL     0.0255
##  2     2    152       6        0 0.936  0.0209 0.975 0.898 HL     0.0650
##  3     3    146       4        0 0.910  0.0251 0.956 0.867 HL     0.0923
##  4     4    142       5        0 0.878  0.0298 0.931 0.829 HL     0.128 
##  5     5    137       3        0 0.859  0.0324 0.915 0.806 HL     0.149 
##  6     6    134       2        0 0.846  0.0341 0.905 0.792 HL     0.164 
##  7     7    132       5        0 0.814  0.0382 0.878 0.755 HL     0.202 
##  8     8    127       3        0 0.795  0.0406 0.861 0.734 HL     0.226 
##  9     9    124       1        0 0.789  0.0414 0.855 0.727 HL     0.234 
## 10    10    123       3        0 0.769  0.0438 0.838 0.706 HL     0.258 
## # ... with 109 more rows
…
